IDS Group Project
…
- Created workflow to effectively combine steps in order to train data easily

---
# Model Implementation (Training the data)
--

``` r
raceresults_fit <- raceresults_wflow %>%
  fit(data = raceresults_train)
tidy(raceresults_fit)
```

```
## # A tibble: 55 × 5
##    term                          estimate std.error statistic p.value
##    <chr>                            <dbl>     <dbl>     <dbl>   <dbl>
##  1 (Intercept)                     0.198      1.69      0.117   0.907
##  2 driver_Alexander.Sims           0.424      1.01      0.418   0.676
##  3 driver_André.Lotterer          -0.766      1.12     -0.687   0.492
##  4 driver_António.Félix.da.Costa   0.0904     0.887     0.102   0.919
##  5 driver_Bruno.Senna             -1.62       1.08     -1.51    0.132
##  6 driver_Daniel.Abt              -0.490      1.59     -0.309   0.758
##  7 driver_Edoardo.Mortara         -0.468      1.14     -0.412   0.680
##  8 driver_Felipe.Massa            -1.06       1.23     -0.866   0.387
##  9 driver_Felix.Rosenqvist        -1.28       0.954    -1.34    0.180
## 10 driver_Jean.Éric.Vergne        -0.996      0.896    -1.11    0.266
## # ℹ 45 more rows
```

-Used the training data to allow model to learn what the most influential predictors are
---

``` r
raceresults_pred <- predict(raceresults_fit, raceresults_test, type = "prob") %>%
  bind_cols(raceresults_test)
raceresults_pred
```

```
## # A tibble: 280 × 8
##    .pred_TRUE .pred_FALSE driver           team_group location rank_num finished
##         <dbl>       <dbl> <chr>            <chr>      <chr>       <int> <lgl>   
##  1      0.856      0.144  Lucas di Grassi  Audi       Putraja…        1 TRUE    
##  2      0.659      0.341  Maximilian Günt… BMW-Andre… Berlin          1 TRUE    
##  3      0.819      0.181  Daniel Abt       Audi       Mexico …        1 TRUE    
##  4      0.942      0.0578 Lucas di Grassi  Audi       Berlin          1 TRUE    
##  5      0.738      0.262  Lucas di Grassi  Audi       Beijing         1 TRUE    
##  6      0.940      0.0604 Lucas di Grassi  Audi       Long Be…        1 TRUE    
##  7      0.875      0.125  Felix Rosenqvist Mahindra   Hong Ko…        1 TRUE    
##  8      0.893      0.107  Stoffel Vandoor… Mercedes   Berlin          1 TRUE    
##  9      0.715      0.285  Sébastien Buemi  Nissan-Re… Beijing         1 TRUE    
## 10      0.841      0.159  Jean-Éric Vergne Techeetah  Punta d…        1 TRUE    
## # ℹ 270 more rows
## # ℹ 1 more variable: finished_fct <fct>
```
…
